…
            missing or wild                inapplicable                       proxy                     refused 
                         -9                          -8                          -7                          -2 
                 don't know              Under 16 years                     Married            Living as couple 
                         -1                           0                           1                           2 
                    Widowed                    Divorced                   Separated               Never married 
                          3                           4                           5                           6 
          Civil partnership Dissolved civil partnership         Sep from civil part        Survive from civ par 
                          7                           8                           9                          10 

     0      1      2      3      4      5      6      7      8      9     10 
   523 127836  25209  18304  12636   4042  50332     47      1      2      2 
# A tibble: 31 × 5
# Groups:   sex.x [3]
   sex.x     mastat                              n      perc cumperc
   <dbl+lbl> <dbl+lbl>                       <int>     <dbl>   <dbl>
 1 1 [Male]  0 [Under 16 years]                251  0.105      0.105
 2 1 [Male]  1 [Married]                     61703 25.8       25.9  
 3 1 [Male]  2 [Living as couple]            12099  5.06      31.0  
 4 1 [Male]  3 [Widowed]                      3995  1.67      32.7  
 5 1 [Male]  4 [Divorced]                     4103  1.72      34.4  
 6 1 [Male]  5 [Separated]                    1384  0.579     35.0  
 7 1 [Male]  6 [Never married]               25803 10.8       45.7  
 8 1 [Male]  7 [Civil partnership]              30  0.0126    45.8  
 9 1 [Male]  8 [Dissolved civil partnership]     1  0.000418  45.8  
10 1 [Male]  9 [Sep from civil part]             1  0.000418  45.8  
# … with 21 more rows
# ℹ Use `print(n = ...)` to see more rows
…
